<svg xmlns="http://www.w3.org/2000/svg" width="130.896" height="26.938" viewBox="0 0 130.896 26.938">
  <path id="about-sp" d="M-48.013-3.648a7.787,7.787,0,0,1,.494,2.014c0,.38-.532.608-1.33.684l-1.1.114a.637.637,0,0,0,.076.95C-48.773.076-47.329,0-45.505,0c1.71,0,3.04.038,4.6.114a.745.745,0,0,0,0-.95L-41.933-.95c-1.634-.19-2.128-.76-3.23-4.028l-5.206-15.276c-.57-1.672-1.178-3.42-1.672-5.092a.538.538,0,0,0-.57-.342,4.261,4.261,0,0,1-1.976,1.444,5.451,5.451,0,0,1-.646,2.7l-3.876,10.26c-1.6,4.256-2.66,6.726-3.344,8.474A2.526,2.526,0,0,1-64.733-.95l-1.254.114a.747.747,0,0,0,.076.95C-64.885.076-63.517,0-62.263,0c1.786.038,2.964.038,3.952.114a.611.611,0,0,0,.076-.95L-59.489-.95c-.912-.076-1.1-.3-1.1-.76a14.527,14.527,0,0,1,.836-3.154l1.33-3.99c.266-.8.494-.912,1.444-.912h5.738c1.14,0,1.292.114,1.558.95Zm-6.8-15.162a23.161,23.161,0,0,1,.912-2.242h.076a25.034,25.034,0,0,1,.874,2.394l2.052,6.194c.342,1.026.266,1.178-.836,1.178h-4.674c-1.064,0-1.1-.038-.8-.912Zm18.2,13.11c0,3.99-.076,4.408-2.09,4.75l-.684.114a.738.738,0,0,0,.076.95C-37.905.076-36.613,0-34.941,0c1.6,0,3.458.114,4.56.114,6.84,0,10.108-2.964,10.108-7.372A6.287,6.287,0,0,0-25.365-13.6c-.418-.076-.722-.19-.722-.57,2.28-1.064,3.876-2.47,3.876-5.206A4.988,4.988,0,0,0-25.1-24.13a14.457,14.457,0,0,0-6.384-1.064c-3.534,0-6.118.114-8.17.3a.607.607,0,0,0-.038.95l1.216.114c1.71.152,1.862.874,1.862,3.686Zm3.116-6.194c0-.76.152-.988,2.2-.988,6.042,0,7.562,3.5,7.562,6.5,0,3.8-2.584,5.32-5.966,5.32a3.689,3.689,0,0,1-3-1.064c-.722-.836-.8-2.774-.8-4.142Zm0-10.906c0-.684.152-.874.532-.988a4.677,4.677,0,0,1,1.748-.228c2.888,0,5.662,1.406,5.662,5.13,0,3.572-2.09,4.712-5.966,4.864-1.938.076-1.976,0-1.976-1.064ZM-3.211.608A12.974,12.974,0,0,0,9.975-12.654c0-6.688-4.408-13.034-13.186-13.034A13.135,13.135,0,0,0-16.739-12.274C-16.739-5.434-11.647.608-3.211.608ZM-2.717-.57c-7.486,0-10.222-7.3-10.222-12.92,0-8.322,5.13-11.02,9.082-11.02,7.258,0,10.032,6.764,10.032,13.034C6.175-3.99,1.843-.57-2.717-.57Zm37.43-10.6c0,5.776-2.09,10.108-7.6,10.108C21.3-1.064,19.4-5.092,19.4-11.21v-8.208c0-3.952.076-4.6,2.28-4.788l.912-.076c.228-.152.152-.8-.076-.912-1.862.076-3.116.114-4.674.114-1.52,0-2.812-.038-4.712-.114-.228.114-.3.76-.076.912l.95.076c2.2.19,2.28.836,2.28,4.788v8.968c0,4.522.95,7.3,2.964,8.968,1.862,1.6,4.484,2.09,7.106,2.09a10.008,10.008,0,0,0,7.258-2.774c2.128-2.28,2.66-5.776,2.66-9.082v-4.294c0-2.128,0-6.5.532-7.752a2.224,2.224,0,0,1,1.9-.912l.912-.076a.656.656,0,0,0-.076-.912c-1.368.076-2.394.114-3.99.114-1.482,0-2.888-.038-4.332-.114a.687.687,0,0,0-.076.912l.95.076a2.352,2.352,0,0,1,1.9.8c.646,1.14.722,5.51.722,7.866ZM54.055-22.61c0-1.254-.038-1.292,1.1-1.292h2.7c2.09,0,3.534.3,4.408.95.57.418.836,1.824.95,2.774a.714.714,0,0,0,.988-.076,23,23,0,0,1,.57-5.776c-.076-.152-.494-.19-.684-.114-.57.988-.912,1.064-2.964,1.064H45.733c-1.748,0-3,.038-3.23-1.178a.95.95,0,0,0-.722,0A40.018,40.018,0,0,1,40.337-20.6a.735.735,0,0,0,.988.266,6.939,6.939,0,0,1,1.71-2.622c.95-.874,3.04-.95,4.674-.95H49.8c1.14,0,1.14.038,1.14,1.216V-5.7c0,3.99-.19,4.56-2.356,4.75l-1.368.114a.664.664,0,0,0,0,.95C49.647.038,50.977,0,52.5,0s2.812.038,4.978.114c.228-.114.3-.8.076-.95L56.335-.95c-2.2-.19-2.28-.76-2.28-4.75Z" transform="translate(66.125 26.33)" fill="#fff"/>
</svg>
