<svg xmlns="http://www.w3.org/2000/svg" width="218.8" height="58.15" viewBox="0 0 218.8 58.15">
  <path id="Path_5712" data-name="Path 5712" d="M-75.025-25.6s-.45.65-1.95.65-5.5,2.6-5.5,3.55c0,.85,2.15,1.4,2.6,1.4,2.45,0,5.9-3.25,7-5.45.5-1,2.25-4.15,2.25-7.35,0-3.95-3.1-5.05-6.2-5.05-11.8,0-31.6,14.3-31.6,29.6,0,7.05,4.45,10,10.7,10a31.532,31.532,0,0,0,11.3-2.4,61.529,61.529,0,0,0,11.75-6.7c1.45-1.15,2.45-2.15,2.45-2.8,0-.35-.2-.65-.5-.65a4.266,4.266,0,0,0-1.25.9c-.55.45-.75,1.25-1.4,1.85-1.85,1.7-7.45,4.3-11.45,5.95A27.812,27.812,0,0,1-96.775,0c-5.65,0-8.35-1.7-8.35-7.55,0-14.25,21.25-28.75,29.05-28.75,1.95,0,3.95.85,3.95,3.65A12.271,12.271,0,0,1-75.025-25.6Zm6.7,22.05c2.1-1.95,4.25-4.6,4.25-7.8a2.775,2.775,0,0,0-2.85-3.1,5.612,5.612,0,0,0-4.55,2.8A13.033,13.033,0,0,0-75.225-9a9.045,9.045,0,0,0-3,6.15c0,1.55.8,3.3,2.7,3.3,2.15,0,4.95-2.05,6.5-3.45a8.4,8.4,0,0,0,3.35.7,8.071,8.071,0,0,0,4.7-1.6c1.35-1,2.3-1.75,2.3-2.3,0-.35-.2-.45-.35-.45a3.023,3.023,0,0,0-1.3.7c-.55.45-.3.75-.8,1.2a7,7,0,0,1-4.6,1.7A5.753,5.753,0,0,1-68.325-3.55Zm1.65-8.2a4.554,4.554,0,0,0-2.1-.45,9.294,9.294,0,0,0-1.65.2,3.359,3.359,0,0,1,2.7-1.4c.85,0,1.85.7,1.85,2.35,0,1.85-1.45,4.95-3.35,7a6.433,6.433,0,0,1-2.45-4.9,8.138,8.138,0,0,1,4.75-2.1c.4,0,.45-.25.45-.4A.362.362,0,0,0-66.675-11.75Zm-8.2,11.2c-1,0-1.4-.55-1.4-1.55,0-1.35,1.9-4.75,3.85-6.3a6.4,6.4,0,0,0,2.55,4.95C-71.125-2.2-73.575-.55-74.875-.55Zm23.85-.95c0,1.05.95,1.7,2.15,1.7,3.25,0,7.4-2.15,10.2-4.4,1.25-1,1.95-1.7,1.95-2.25,0-.2-.1-.5-.4-.5-.2,0-.5.2-1,.6-.55.45-.25.8-.8,1.3-2.1,1.95-6.7,4.35-9.3,4.35-.55,0-1-.35-1-.7,0-2.35,5.1-6.35,5.1-9.6,0-.95-.45-1.75-1.9-1.75-3.45,0-10.4,5.8-13,8.05.3-.6,2.95-4.5,3.3-5.1a1.935,1.935,0,0,0,.25-.9c0-.5-.75-2.1-1.35-2.1a1.11,1.11,0,0,0-.9.6c-.85,1.1-1.6,1.8-1.6,2.7,0,.25.1.45.1.8a3.9,3.9,0,0,1-.8,1.9c-.5.75-2.9,4.8-2.9,5.45,0,.85.5,1.5,1.15,1.5a.708.708,0,0,0,.6-.35c1.55-3.55,10.4-10.55,13.5-10.55.3,0,.55.25.55.7C-47.125-8.5-51.025-4.75-51.025-1.5Zm17.55-21.05c-1.7,0-4,.35-4,2.15,0,.75.95.75,1.35.75a2.744,2.744,0,0,0,2.15-.7,2.129,2.129,0,0,1,1.9-.9,7.611,7.611,0,0,1,2,.25c-1.85,3.15-3.65,6.4-6.15,10.6a72.6,72.6,0,0,0-4.5,8.8c0,.85.7,1.85,1.35,1.85a.463.463,0,0,0,.45-.4,67.881,67.881,0,0,1,4.35-9.2c3.25-5.95,3.9-6.8,6.6-11.2a25.935,25.935,0,0,0,6.65,1.05c4.9,0,6.1-1.9,6.1-2.25,0-.5-.2-.8-.4-.8-.4,0-.7.25-1.2.55-.4.25-.05.85-.65,1.15a7.672,7.672,0,0,1-3.2.55,25.464,25.464,0,0,1-6.8-1.1c1.05-1.65,4.65-6.9,4.65-7.75,0-.65-.9-2.15-1.5-2.15a1.414,1.414,0,0,0-1.2.65c-.85,1.05-1.7,2.2-1.7,3.25,0,.4.05.55.05.7,0,.8-.3,1.35-2.3,4.8A13.664,13.664,0,0,0-33.475-22.55ZM-21.425-1.6A2.082,2.082,0,0,0-19.175.2c4.6,0,12.2-5.15,12.2-6.7,0-.2-.1-.5-.25-.5a3.147,3.147,0,0,0-1.2.7c-.55.45-.2.8-.75,1.3-1.85,1.7-6.95,4.3-9.05,4.3-.45,0-1.05-.1-1.05-.75,0-1.3,1.4-3.8,1.9-3.8.95,0,1.65-2,1.65-2.85,0-.5-.75-2.4-1.5-2.4-.35,0-.65.45-1,1a18,18,0,0,1-2.5,3.2c-2.25,2.45-6.85,5.65-8.65,5.65-.6,0-.95-.4-.95-1.2,0-.9,2.25-4.15,5.35-6.55,2.8-2.2,4.75-3.2,6.5-3.2,3.5,0,2.9,2.8,4.05,2.8.5,0,.85-.6.85-.9,0-1.35-2.35-3.1-5.35-3.1a14.838,14.838,0,0,0-8.2,2.95c-2.65,1.85-5.25,5.35-5.25,7.75a2.309,2.309,0,0,0,2.4,2.4c3.05,0,7.55-3.6,9.65-5.75l.25.15C-21.075-3.4-21.425-2.5-21.425-1.6Zm25.4-10a3.293,3.293,0,0,0-2.55-1c-5.05,0-11.15,5.1-11.15,9.7,0,2.15,1.85,3.45,4,3.45,4.05,0,10.5-3.2,13.95-5.5,1.35-.9,2.35-1.65,2.35-2.2a.538.538,0,0,0-.4-.45,2.1,2.1,0,0,0-1.05.55c-.55.45-.35.8-.9,1.2C4.825-3.4-1.475-.6-5.125-.6a1.834,1.834,0,0,1-2.1-1.95c0-3.75,6.45-9.1,9.05-9.1,1.05,0,1.45.35,1.45.85,0,1-1.8,2.35-1.8,2.6,0,.05.05.2.4.2,1.9,0,4.55-3.05,4.55-4.45q0-.3-.45-.3A1.916,1.916,0,0,0,3.975-11.6Zm9.4-10.95c-1.7,0-4,.35-4,2.15,0,.75.95.75,1.35.75a2.744,2.744,0,0,0,2.15-.7,2.129,2.129,0,0,1,1.9-.9,7.611,7.611,0,0,1,2,.25c-1.85,3.15-3.65,6.4-6.15,10.6a72.6,72.6,0,0,0-4.5,8.8c0,.85.7,1.85,1.35,1.85a.463.463,0,0,0,.45-.4,67.881,67.881,0,0,1,4.35-9.2c3.25-5.95,3.9-6.8,6.6-11.2a25.935,25.935,0,0,0,6.65,1.05c4.9,0,6.1-1.9,6.1-2.25,0-.5-.2-.8-.4-.8-.4,0-.7.25-1.2.55-.4.25-.05.85-.65,1.15a7.672,7.672,0,0,1-3.2.55,25.464,25.464,0,0,1-6.8-1.1c1.05-1.65,4.65-6.9,4.65-7.75,0-.65-.9-2.15-1.5-2.15a1.414,1.414,0,0,0-1.2.65c-.85,1.05-1.7,2.2-1.7,3.25,0,.4.05.55.05.7,0,.8-.3,1.35-2.3,4.8A13.664,13.664,0,0,0,13.375-22.55ZM37.125-1.4a5.991,5.991,0,0,0,3.5,1.25,7.659,7.659,0,0,0,5.25-2.65c1.4-1.4,1.8-1.85,1.8-2.4,0-.4-.1-.65-.4-.65s-.75.35-1.3.85c-.5.5-.3.85-.65,1.35a5.917,5.917,0,0,1-4.7,2.7c-1.35,0-2.95-1.3-2.95-2.1,0-.35.2-.7.2-1.15,0-.95-1.5-3.45-2.45-3.45-.55,0-.85,1.05-.85,1.7,0,1.6,1.25,2.2,1.25,5.15,0,6.9-7.45,19.85-11.35,19.85-.8,0-1.6-1-1.6-2.3,0-4.25,4.15-13.15,10-22.5,7.7-12.35,13.25-20.55,14.25-22a2.18,2.18,0,0,0,.55-1.2c0-.35-.8-.6-1.4-.6-2.05,0-4.05,2.05-4.7,4.2-.45,1.45.15,1.9-1.55,4.75-1.9,3.15-5.7,8.2-9.1,13.75-5.55,9.1-10.15,18.3-10.15,23.35,0,2.25,1.15,3.8,3.25,3.8,5.75,0,13.15-16.05,13.15-21A2.861,2.861,0,0,0,37.125-1.4Zm18.15-2.15c2.1-1.95,4.25-4.6,4.25-7.8a2.775,2.775,0,0,0-2.85-3.1,5.612,5.612,0,0,0-4.55,2.8A13.033,13.033,0,0,0,48.375-9a9.045,9.045,0,0,0-3,6.15c0,1.55.8,3.3,2.7,3.3,2.15,0,4.95-2.05,6.5-3.45a8.4,8.4,0,0,0,3.35.7,8.071,8.071,0,0,0,4.7-1.6c1.35-1,2.3-1.75,2.3-2.3,0-.35-.2-.45-.35-.45a3.023,3.023,0,0,0-1.3.7c-.55.45-.3.75-.8,1.2a7,7,0,0,1-4.6,1.7A5.753,5.753,0,0,1,55.275-3.55Zm1.65-8.2a4.554,4.554,0,0,0-2.1-.45,9.294,9.294,0,0,0-1.65.2,3.359,3.359,0,0,1,2.7-1.4c.85,0,1.85.7,1.85,2.35,0,1.85-1.45,4.95-3.35,7a6.433,6.433,0,0,1-2.45-4.9,8.138,8.138,0,0,1,4.75-2.1c.4,0,.45-.25.45-.4A.362.362,0,0,0,56.925-11.75Zm-8.2,11.2c-1,0-1.4-.55-1.4-1.55,0-1.35,1.9-4.75,3.85-6.3a6.4,6.4,0,0,0,2.55,4.95C52.475-2.2,50.025-.55,48.725-.55Zm13.35.35c1.8-2.55,9.1-11.25,11.9-11.25a.408.408,0,0,1,.45.4c0,.55-.65.9-.65,1.55,0,.4.45,2.3,1.05,2.3.65,0,1.65-2.1,1.65-3.25,0-1.45-.65-2.25-1.9-2.25-3,0-7.3,5.25-9.8,7.55-.05.05-.05-.1-.05-.25l3.15-4.7a1.935,1.935,0,0,0,.25-.9c0-.6-.65-1.85-1.5-1.85-.7,0-.95.4-1.3.8a5.115,5.115,0,0,0-1.55,3.25c0,.25.05.55.05.75a2.424,2.424,0,0,1-.6,1.55c-.5.75-2.8,4.35-2.8,5s.2,1.65,1,1.65A.787.787,0,0,0,62.075-.2Zm33.9-1.35c0,1.05,1.05,1.75,2.25,1.75,3.35,0,7.4-2.15,10.2-4.4,1.25-1,1.95-1.7,1.95-2.25a.491.491,0,0,0-.45-.5c-.2,0-.5.2-1,.6-.55.45-.25.8-.8,1.3-2.1,1.95-7,4.35-8.95,4.35-.5,0-1.3,0-1.3-.75,0-1.65,5.2-6.7,5.2-9.75a1.664,1.664,0,0,0-1.85-1.5c-3.6,0-11.5,7.85-11.5,7.7a1.791,1.791,0,0,1,.2-.55c.85-1.4,2.15-3.8,2.15-5.55a1.536,1.536,0,0,0-1.65-1.6c-3.55,0-11.9,8.2-11.9,7.9,0,0-.25.35,3.25-5.2a1.935,1.935,0,0,0,.25-.9c0-.55-.75-1.9-1.55-1.9-.4,0-.7.3-1.1.7a5.61,5.61,0,0,0-1.6,3.15c0,.25.05.45.05.9a2.811,2.811,0,0,1-.55,1.6c-.45.75-2.85,4.55-2.85,5.15A1.427,1.427,0,0,0,75.775.15a.628.628,0,0,0,.5-.35c1.85-3.1,9.5-10.2,11.85-10.2.45,0,.7.35.7.85,0,2.15-3.4,7.7-3.4,8.35a1.269,1.269,0,0,0,1.2,1.4.735.735,0,0,0,.65-.4c1.6-2.65,9-10.25,11.45-10.25a.8.8,0,0,1,.9.85C99.625-8,95.975-4.35,95.975-1.55Z" transform="translate(108.425 37.85)" fill="#4f8966"/>
</svg>
