<svg xmlns="http://www.w3.org/2000/svg" width="18.384" height="18.357" viewBox="0 0 18.384 18.357">
  <g id="phone" transform="translate(0 0)">
    <path id="common_footer_tel" data-name="common_footer/tel" d="M16.5,17.484l1.357-1.357a1.428,1.428,0,0,0,0-2.185L15.444,11.53a1.428,1.428,0,0,0-2.185,0l-1.507,1.507-.075.075-.377.377a.229.229,0,0,1-.3,0,6.229,6.229,0,0,1-.98-.528A14.975,14.975,0,0,1,6.25,9.5,7.937,7.937,0,0,1,4.969,7.31c-.075-.151-.075-.226,0-.3l.3-.377a.074.074,0,0,1,.075-.075L5.8,6.1,6.853,5.049a1.428,1.428,0,0,0,0-2.185L5.647,1.658C5.271,1.281,4.818.9,4.442.452a1.546,1.546,0,0,0-2.185,0A14.23,14.23,0,0,1,.749,1.959,2.8,2.8,0,0,0,0,3.617,6.9,6.9,0,0,0,.523,6.632a18.864,18.864,0,0,0,3.241,5.426,19.656,19.656,0,0,0,6.707,5.2,9.064,9.064,0,0,0,3.693,1.055A2.328,2.328,0,0,0,16.5,17.484Z" transform="translate(0.019 0)" fill="#606060"/>
  </g>
</svg>
