<svg xmlns="http://www.w3.org/2000/svg" width="15.112" height="15.112" viewBox="0 0 15.112 15.112">
  <g id="plus" transform="translate(-354.274 -166.5)">
    <line id="Line_54" data-name="Line 54" x2="15.112" transform="translate(354.274 174.056)" fill="none" stroke="#606060" stroke-width="2"/>
    <line id="Line_55" data-name="Line 55" y2="15.112" transform="translate(361.83 166.5)" fill="none" stroke="#606060" stroke-width="2"/>
  </g>
</svg>
