<svg xmlns="http://www.w3.org/2000/svg" width="15" height="1" viewBox="0 0 15 1">
  <path id="Path_5757" data-name="Path 5757" d="M0,0H15" transform="translate(0 0.5)" fill="none" stroke="#4f8966" stroke-width="1" opacity="0.7"/>
</svg>
