<svg xmlns="http://www.w3.org/2000/svg" width="16.915" height="4.881" viewBox="0 0 16.915 4.881">
  <path id="Path_133" data-name="Path 133" d="M2540,3495.86l4.027,4.027h-15.708" transform="translate(-2528.319 -3495.507)" fill="none" stroke="#4f8966" stroke-width="1" opacity="0.498"/>
</svg>
