<svg xmlns="http://www.w3.org/2000/svg" width="15" height="1" viewBox="0 0 15 1">
  <line id="Line_51" data-name="Line 51" x2="15" transform="translate(0 0.5)" fill="none" stroke="#ededed" stroke-width="1" opacity="0.7"/>
</svg>
