<svg xmlns="http://www.w3.org/2000/svg" width="100" height="47" viewBox="0 0 100 47">
  <path id="Path_5605" data-name="Path 5605" d="M-35.85.45c5.5-11.75,14.35-20.05,22.3-28.2C-10-31.4-6.1-34.1-3.65-34.1c1.65,0,2.7.8,2.7,2.9,0,7.5-13,20.8-13,32.65,0,5.1,4.05,8.25,9.25,8.25,1.7,0,3.8-1,3.8-1.9a1.105,1.105,0,0,0-1-1c-.95,0-2.9.45-3.25,1.45C-8.9,8.25-11.7,6.5-11.7,2.8c0-8.35,14.15-26.65,14.15-34.6,0-2.7-1.5-4.55-4.15-4.55-7.3,0-18.45,13.6-23.9,19.2-.1.1-.15.15-.2.15s-.1-.05-.1-.15c0-.05.05-.1.1-.2,3.95-5.85,6.35-10.9,6.35-14.55,0-3.15-1.7-5.4-5.3-5.4-6.85,0-17.95,6.35-23,11.4a3.9,3.9,0,0,0-1.15,2.55c0,1.05.35,2.25,1.6,2.25.6,0,1.4-.85,2.3-1.85,2.2-2.35,2-2.5,2.65-4.45.8-2.45,10.25-8.25,16.3-8.25,2.4,0,3.5.6,3.5,3.55,0,2.85-1.8,8.35-5.6,14a167.046,167.046,0,0,0-9.3,15c-.65,1.2-.75,1.55-.75,1.9A2.8,2.8,0,0,0-36.4.9C-36.2.9-36,.75-35.85.45ZM7.95-11.1c0-1.25-1.3-1.6-2.5-1.6a12,12,0,0,0-7.4,3.1c-2.35,2.05-3.5,4.4-3.5,6.25C-5.45-.65-3.25.3-.85.3,3.2.3,8.7-2.3,11.9-4.55c1.35-1,2.4-1.95,2.4-2.5,0-.2-.1-.5-.35-.5a2.413,2.413,0,0,0-1.1.6c-.55.45-.4,1-.95,1.45C8.75-2.95,3.05-.8-.65-.8c-1.35,0-2.7-.4-2.7-1.8a5.076,5.076,0,0,1,1.2-3.2A4.672,4.672,0,0,0-1-5.7C3.05-5.7,7.95-8.8,7.95-11.1Zm-1.35.25C6.6-9.25,2.85-6.5-.75-6.5a6.375,6.375,0,0,1-.95-.05C.05-8.55,4-11.4,5.75-11.4,6.2-11.4,6.6-11.2,6.6-10.85Zm5.8,9.4a11.6,11.6,0,0,0,2.2-6.3,11.912,11.912,0,0,0-.45-3.7A2.329,2.329,0,0,0,12-12.5c-.4,0-.65.4-.65.9a5.707,5.707,0,0,0,.25,1.65c.3,1,.8.65.9,1.5a2.851,2.851,0,0,1,.05.65,9.061,9.061,0,0,1-2.5,5.85,1.233,1.233,0,0,0-.3.9c0,.45.2,1.15.8,1.15C12.9.1,17.2-3.2,19.1-6.1c0,0,.1-.1.15-.1a.219.219,0,0,1,.05.15,9.167,9.167,0,0,0-.4,2.6c0,1.85.8,3.7,3.35,3.7C26.9.25,31.7-6.8,31.7-11.4c0-1.25-.6-2.1-1.35-2.1-.85,0-.95,2.15-.95,2.75,0,.95.25,1.05.25,1.8C29.65-6,25.75-.5,22.5-.5c-.95,0-1.6-.65-1.6-1.95a13.706,13.706,0,0,1,2.75-7,2.024,2.024,0,0,0,.45-1.05c0-.15-.25-.25-.5-.25a5.738,5.738,0,0,0-.7.1,3.828,3.828,0,0,0-3.1,2.1,22.168,22.168,0,0,1-7,7.15.845.845,0,0,1-.25.1A.133.133,0,0,1,12.4-1.45Zm19.8-1.2c0-.25.05-.35.15-.35a.332.332,0,0,1,.25.2.908.908,0,0,0,.8.4c1.1,0,2.65-1.8,2.65-3.05a15.515,15.515,0,0,0,4.2-3.6c.05.55.05,1.05.05,1.55,0,3-3.2,6.55-5.45,6.55C32.9-.95,32.2-2.15,32.2-2.65Zm9.45-6.9a1.14,1.14,0,0,0,.55.15,3.843,3.843,0,0,0,2.65-2.35c0-.6-.65-1.45-1.1-1.45-.7,0-2.3,1.1-3.55,2.8a13.758,13.758,0,0,1-4.4,4.1.916.916,0,0,0-.9-.7c-1.35,0-3.45,2.2-3.45,4.2C31.45,0,33.9.45,36.35.45a20.473,20.473,0,0,0,12.7-4.5C50.35-5.1,51.1-5.9,51.1-6.4c0-.25-.15-.5-.3-.5a2.487,2.487,0,0,0-1.15.65c-.55.45-.25.8-.8,1.3A20.072,20.072,0,0,1,39.3-.6a5.52,5.52,0,0,0,3-5.05A12.7,12.7,0,0,0,41.65-9.55Z" transform="translate(48.9 37.3)" fill="#4f8966"/>
</svg>
