<svg xmlns="http://www.w3.org/2000/svg" width="72.436" height="33.807" viewBox="0 0 72.436 33.807">
  <path id="news" d="M-10.292-20.127q-1.178,1.213-2.057,2.1T-13.9-16.444q-.677.694-1.2,1.23t-1,1.028q-.475.492-.949,1.011l-1.055,1.151q-1.371,1.529-2.6,3.155t-2.268,3.226q-1.037,1.6-1.881,3.12t-1.459,2.8Q-26.5.65-26.763.6a.759.759,0,0,1-.466-.343,1.683,1.683,0,0,1-.264-.747,1.418,1.418,0,0,1,.2-.914q.387-.721.765-1.406t.809-1.433q.431-.747.94-1.591t1.187-1.9q.677-1.055,1.538-2.364t2-2.962a27.986,27.986,0,0,0,2.294-4,23.359,23.359,0,0,0,1.354-3.6,10.758,10.758,0,0,0,.439-2.848,2.9,2.9,0,0,0-.448-1.767,2.032,2.032,0,0,0-1.151-.589A7.152,7.152,0,0,0-19.468-26a11.983,11.983,0,0,0-2.32.36,10.707,10.707,0,0,0-2.373.905q-1.705.879-2.927,1.556t-2.057,1.257a7.29,7.29,0,0,0-1.3,1.107,3.253,3.253,0,0,0-.659,1.09q-.176.527-.272.853a3.527,3.527,0,0,1-.264.642,4.33,4.33,0,0,1-.475.694q-.308.378-.905,1.011-.439.475-.809.826a1.651,1.651,0,0,1-.668.431.473.473,0,0,1-.519-.193,2.663,2.663,0,0,1-.378-1.063,1.638,1.638,0,0,1-.009-.562,2.4,2.4,0,0,1,.167-.589,3.975,3.975,0,0,1,.281-.545,2.007,2.007,0,0,1,.352-.431q.352-.352,1.222-1.081t2.188-1.652q1.318-.923,3.05-1.942A37.175,37.175,0,0,1-24.3-25.277a23.329,23.329,0,0,1,2.76-1,13.972,13.972,0,0,1,2.479-.5,7.571,7.571,0,0,1,2.048.044,3.04,3.04,0,0,1,1.468.633,3.587,3.587,0,0,1,1.266,2.241,7.424,7.424,0,0,1-.264,3.085,19.3,19.3,0,0,1-1.573,3.832A48.45,48.45,0,0,1-18.8-12.5q-.105.141-.044.229t.2-.07q.9-1.055,1.731-1.951t1.749-1.828q.914-.932,1.978-1.986t2.417-2.408a31.347,31.347,0,0,1,3.234-2.874A18.5,18.5,0,0,1-4.5-25.312a7.888,7.888,0,0,1,2.628-.826,3.072,3.072,0,0,1,2.021.4A2.881,2.881,0,0,1,1.494-23.66a7.607,7.607,0,0,1-.343,3.208,25.2,25.2,0,0,1-1.74,4.236q-1.2,2.364-2.83,5.159-1.02,1.775-1.96,3.48t-1.67,3.3a30.127,30.127,0,0,0-1.2,3.015,11.569,11.569,0,0,0-.58,2.646,5.593,5.593,0,0,0,.211,2.206,3.457,3.457,0,0,0,1.178,1.67,3.57,3.57,0,0,0,1.239.659,7.628,7.628,0,0,0,1.257.272,8.744,8.744,0,0,0,1.354.035.826.826,0,0,1,.158-.3,1.309,1.309,0,0,1,.29-.272A2.243,2.243,0,0,1-2.628,5.4a3.558,3.558,0,0,1,1.02-.211.916.916,0,0,1,.536.123.327.327,0,0,1,.149.308.52.52,0,0,1-.158.325,4.762,4.762,0,0,1-1.107.765,3.217,3.217,0,0,1-1.406.272q-.422,0-.967-.035a7.157,7.157,0,0,1-1.125-.167A7.129,7.129,0,0,1-6.855,6.4a4.345,4.345,0,0,1-1.1-.668A4.873,4.873,0,0,1-9.475,3.8,6.681,6.681,0,0,1-9.993,1.31a11.625,11.625,0,0,1,.325-2.918A22.85,22.85,0,0,1-8.64-4.852,37.253,37.253,0,0,1-7.049-8.314q.923-1.775,2.013-3.568,1.441-2.443,2.479-4.535A30.352,30.352,0,0,0-.976-20.127a8.837,8.837,0,0,0,.545-2.725,1.929,1.929,0,0,0-.615-1.6,2.368,2.368,0,0,0-1.582-.439,5.871,5.871,0,0,0-2.171.58,13.978,13.978,0,0,0-2.6,1.6A25.946,25.946,0,0,0-10.292-20.127ZM5.335-8.6a1.069,1.069,0,0,1,.167.853,2.249,2.249,0,0,1-.466.932,5.337,5.337,0,0,1-.958.914,9.148,9.148,0,0,1-1.292.817,8,8,0,0,1-1.406.563A10.187,10.187,0,0,1,0-4.21a6.77,6.77,0,0,1-1.2.079,3.1,3.1,0,0,1-.853-.123,4.638,4.638,0,0,0-.562.967A3.732,3.732,0,0,0-2.9-2.259a2.411,2.411,0,0,0,.044.905.915.915,0,0,0,.457.6A2.977,2.977,0,0,0-1.081-.4,8.089,8.089,0,0,0,.686-.5,14.664,14.664,0,0,0,2.707-.976,20.79,20.79,0,0,0,4.8-1.74a18.143,18.143,0,0,0,1.969-.984A13.21,13.21,0,0,0,8.429-3.85.826.826,0,0,0,8.657-4.1a2.278,2.278,0,0,0,.123-.272A2.278,2.278,0,0,1,8.9-4.649.92.92,0,0,1,9.114-4.9,1.791,1.791,0,0,1,9.8-5.3q.246-.044.281.22a.538.538,0,0,1-.114.343A2.82,2.82,0,0,1,9.6-4.3q-.237.237-.554.5t-.686.527A18.811,18.811,0,0,1,6.715-2.241q-.923.519-1.942.976T2.7-.448A12.953,12.953,0,0,1,.642.079,8.567,8.567,0,0,1-1.266.193a4.092,4.092,0,0,1-1.608-.4A2.237,2.237,0,0,1-3.929-1.336,2.947,2.947,0,0,1-4.1-3a5.5,5.5,0,0,1,.765-1.942A8.242,8.242,0,0,1-1.608-6.908,9.357,9.357,0,0,1,.659-8.385a8.68,8.68,0,0,1,2.109-.668A4.619,4.619,0,0,1,4.421-9.07,1.4,1.4,0,0,1,5.335-8.6ZM2.487-5.361a7.442,7.442,0,0,0,.9-.6,5.741,5.741,0,0,0,.8-.738,2.922,2.922,0,0,0,.5-.747.652.652,0,0,0,0-.624.732.732,0,0,0-.6-.334,2.592,2.592,0,0,0-1.107.176,8.376,8.376,0,0,0-1.547.756,13.309,13.309,0,0,0-1.9,1.424q-.439.387-.765.721a5.535,5.535,0,0,0-.571.686,3.635,3.635,0,0,0,.844.1,7.171,7.171,0,0,0,1.09-.07,7.606,7.606,0,0,0,1.187-.264A6.553,6.553,0,0,0,2.487-5.361ZM8.851-1.072a.3.3,0,0,0-.07.255q.035.1.264-.009a7.37,7.37,0,0,0,1.3-.817,15.66,15.66,0,0,0,1.433-1.248,19.041,19.041,0,0,0,1.415-1.547A17.946,17.946,0,0,0,14.44-6.152a7.591,7.591,0,0,1,.466-.677,2.148,2.148,0,0,1,.422-.413,1.737,1.737,0,0,1,.5-.246q.281-.088.7-.176a1.544,1.544,0,0,1,.563-.079q.176.026.193.141a.574.574,0,0,1-.1.325,4.222,4.222,0,0,1-.308.475,12.184,12.184,0,0,0-1.239,2.127,9.394,9.394,0,0,0-.686,2.057,3.259,3.259,0,0,0,.026,1.608,1.043,1.043,0,0,0,.9.765,2.714,2.714,0,0,0,1.266-.132A4.46,4.46,0,0,0,18.4-1.055a7.411,7.411,0,0,0,1.151-1.09,9.429,9.429,0,0,0,.976-1.362,8.293,8.293,0,0,0,.694-1.485,6.354,6.354,0,0,0,.334-1.459.968.968,0,0,0-.018-.334q-.035-.123-.07-.255t-.07-.334a2.631,2.631,0,0,1-.018-.554q.018-.369.044-.747a3.465,3.465,0,0,1,.1-.642.687.687,0,0,1,.2-.369q.132-.105.378.035a2.357,2.357,0,0,1,.457.352,1.037,1.037,0,0,1,.264.545,3.1,3.1,0,0,1,.018.888,9.976,9.976,0,0,1-.264,1.38,8.339,8.339,0,0,1-.589,1.617,11.59,11.59,0,0,1-.932,1.6,11.691,11.691,0,0,1-1.178,1.441A8.145,8.145,0,0,1,18.527-.686a5.6,5.6,0,0,1-1.45.7,3.276,3.276,0,0,1-1.459.123,1.88,1.88,0,0,1-1.327-.677,2.7,2.7,0,0,1-.51-1.283,5.552,5.552,0,0,1,.009-1.494,10.885,10.885,0,0,1,.246-1.292q.035-.105-.009-.123t-.132.088q-.439.563-.993,1.213a13,13,0,0,1-1.266,1.283,12.07,12.07,0,0,1-1.608,1.2,9.891,9.891,0,0,1-2,.949,1.177,1.177,0,0,1-.448.07.422.422,0,0,1-.264-.114.57.57,0,0,1-.141-.237q-.044-.141-.079-.3a.824.824,0,0,1,.246-.756,5.494,5.494,0,0,0,.686-.87,8.2,8.2,0,0,0,.633-1.169,6.339,6.339,0,0,0,.422-1.336,4.537,4.537,0,0,0,.07-1.371.569.569,0,0,0-.114-.308,1.474,1.474,0,0,0-.176-.149,1,1,0,0,1-.193-.193A1.157,1.157,0,0,1,8.5-7.172a5.166,5.166,0,0,1-.176-.914,2.022,2.022,0,0,1,.026-.633A.311.311,0,0,1,8.675-9q1.125,0,1.406.686a3.235,3.235,0,0,1,.149.554q.062.325.1.686t.053.729q.018.369.018.686a7.632,7.632,0,0,1-.158,1.389A8.057,8.057,0,0,1,9.87-3.015a9.79,9.79,0,0,1-.492,1.081A7.924,7.924,0,0,1,8.851-1.072Zm14.52-1.02a1.193,1.193,0,0,0,.009.431,1.2,1.2,0,0,0,.2.466,1.543,1.543,0,0,0,.475.422,2.143,2.143,0,0,0,.826.264,2.6,2.6,0,0,0,1.257-.1,3.97,3.97,0,0,0,1.116-.58,4.811,4.811,0,0,0,.9-.861,5.356,5.356,0,0,0,.615-.94,5.534,5.534,0,0,0,.4-.993,5.636,5.636,0,0,0,.193-.976,7.906,7.906,0,0,0,.044-.984q-.009-.492-.026-1.037a22.274,22.274,0,0,1-1.617,1.688,8.544,8.544,0,0,1-1.723,1.266,1.191,1.191,0,0,1-.105.51,2.686,2.686,0,0,1-.369.642,3.662,3.662,0,0,1-.571.6,1.684,1.684,0,0,1-.694.36.426.426,0,0,1-.4-.07,1.6,1.6,0,0,1-.281-.246q-.088-.105-.149-.088T23.37-2.092ZM30-7.049a9.355,9.355,0,0,1,.29,1.063,7.9,7.9,0,0,1,.167,1.248,7.458,7.458,0,0,1-.035,1.257A2.95,2.95,0,0,1,30.1-2.408a5.136,5.136,0,0,1-1.037,1.371,4.032,4.032,0,0,1-1.02.721,3.614,3.614,0,0,0,.712-.044q.431-.062.976-.185t1.16-.325q.615-.2,1.266-.466a10.334,10.334,0,0,0,1.169-.571q.536-.308.967-.6a8.051,8.051,0,0,0,.738-.554q.308-.264.5-.439a.659.659,0,0,0,.211-.246,1.524,1.524,0,0,0,.079-.229,1.25,1.25,0,0,1,.079-.22.69.69,0,0,1,.211-.237,2.575,2.575,0,0,1,.65-.422q.211-.07.246.211.035.264-.343.686a8.824,8.824,0,0,1-1.063.967L35.13-2.6q-.281.229-.677.492t-.94.563q-.545.3-1.248.615a14.31,14.31,0,0,1-1.837.65,16.771,16.771,0,0,1-2.021.439,13.227,13.227,0,0,1-2.013.158A8.456,8.456,0,0,1,24.6.141a2.12,2.12,0,0,1-.905-.4,2.361,2.361,0,0,1-.545-.624,2.062,2.062,0,0,1-.264-.7,2.211,2.211,0,0,1-.026-.642,2.748,2.748,0,0,1,.211-.791,3.756,3.756,0,0,1,.457-.8,3.691,3.691,0,0,1,.668-.686,2.789,2.789,0,0,1,.861-.466.8.8,0,0,1,.6.018.649.649,0,0,1,.334.422A6.5,6.5,0,0,0,27.58-5.687a13.187,13.187,0,0,0,1.591-1.8,6.189,6.189,0,0,1,1.248-1.362,4.824,4.824,0,0,1,1.2-.659.365.365,0,0,1,.334.07.975.975,0,0,1,.29.325,1.051,1.051,0,0,1,.132.448.663.663,0,0,1-.141.457,4.015,4.015,0,0,1-1.187,1.125A1.106,1.106,0,0,1,30-7.049Z" transform="translate(35.422 26.828)" fill="#4f8966"/>
</svg>
