<svg xmlns="http://www.w3.org/2000/svg" xmlns:xlink="http://www.w3.org/1999/xlink" width="5" height="35" viewBox="0 0 5 35">
  <defs>
    <clipPath id="clip-path">
      <rect width="35" height="5" fill="none"/>
    </clipPath>
  </defs>
  <g id="Symbol_17_1" data-name="Symbol 17 – 1" transform="translate(-921.5 -2825)">
    <g id="Repeat_Grid_16" data-name="Repeat Grid 16" transform="translate(926.5 2825) rotate(90)" clip-path="url(#clip-path)">
      <g transform="translate(-368 -788)">
        <circle id="Ellipse_1" data-name="Ellipse 1" cx="2.5" cy="2.5" r="2.5" transform="translate(368 788)" fill="#4f8966" opacity="0.505"/>
      </g>
      <g transform="translate(-353 -788)">
        <circle id="Ellipse_1-2" data-name="Ellipse 1" cx="2.5" cy="2.5" r="2.5" transform="translate(368 788)" fill="#4f8966" opacity="0.505"/>
      </g>
      <g transform="translate(-338 -788)">
        <circle id="Ellipse_1-3" data-name="Ellipse 1" cx="2.5" cy="2.5" r="2.5" transform="translate(368 788)" fill="#4f8966" opacity="0.505"/>
      </g>
    </g>
  </g>
</svg>
