<svg xmlns="http://www.w3.org/2000/svg" width="176.6" height="64" viewBox="0 0 176.6 64">
  <path id="Path_5609" data-name="Path 5609" d="M-37.95-30.65c-1.6.1-3.8,1.95-3.95,3.45-.45,4.5-17.45,18.85-26,23.1a1.966,1.966,0,0,1-.3.1c-.2,0-.2-.2-.2-.3,0-.4,12.85-17.75,12.85-26.3,0-4.05-2.7-6.8-6.95-6.8-7.35,0-18.3,6.45-23.05,11.55A3.563,3.563,0,0,0-86.6-23.4c0,.8.3,2.65,1.1,2.65.95,0,1.9-.95,2.8-2,2.1-2.3,2.05-2.1,2.6-4,0-3.1,9.9-8.5,15.6-8.5,3.65,0,5.3,1.65,5.3,4.7,0,6.45-10.25,22.6-12.75,26.05-1.25,1.75-1.4,2.05-1.4,2.6,0,.8.75,2.25,1.6,2.25a2.754,2.754,0,0,0,1.25-.6c4.2-2.9,19.8-12.5,28.95-23.2a.362.362,0,0,1,.3-.2.133.133,0,0,1,.15.15.845.845,0,0,1-.1.25c-2.5,4.4-6,11.5-6,17,0,4,2.15,6.3,6.5,6.3C-30.6.05-18-16.15-18-32.75c0-2.75-.45-4.9-1.35-4.9a1.984,1.984,0,0,0-1.3.6,3.846,3.846,0,0,0-1.6,3.45c0,1.75.1,3.5,1.4,4.2.25.15.4.75.4,1.6,0,9.85-10.7,25.5-20.05,25.5-2.7,0-3.6-2.75-3.6-5.35,0-9.6,7.9-17.05,7.9-20.8C-36.2-29.25-37.1-30.65-37.95-30.65ZM-12.1-11.1c0-1.25-1.3-1.6-2.5-1.6A12,12,0,0,0-22-9.6c-2.35,2.05-3.5,4.4-3.5,6.25C-25.5-.65-23.3.3-20.9.3c4.05,0,9.55-2.6,12.75-4.85,1.35-1,2.4-1.95,2.4-2.5,0-.2-.1-.5-.35-.5a2.413,2.413,0,0,0-1.1.6c-.55.45-.4,1-.95,1.45C-11.3-2.95-17-.8-20.7-.8c-1.35,0-2.7-.4-2.7-1.8a5.076,5.076,0,0,1,1.2-3.2,4.672,4.672,0,0,0,1.15.1C-17-5.7-12.1-8.8-12.1-11.1Zm-1.35.25c0,1.6-3.75,4.35-7.35,4.35a6.375,6.375,0,0,1-.95-.05c1.75-2,5.7-4.85,7.45-4.85C-13.85-11.4-13.45-11.2-13.45-10.85ZM3.45.2c3.7,0,7.5-2.25,10.2-4.4,1.2-.95,1.95-1.7,1.95-2.2,0-.25,0-.5-.3-.5a2.4,2.4,0,0,0-1.1.65c-.55.45-.25.8-.8,1.3C11-2.75,6.55-.7,4.05-.7c-.75,0-.95-.4-.95-.8,0-1.2,1.05-3.65,3.7-8.15C9.95-15,13.3-19.8,16-24.55c1.1-1.95,2.75-4.5,3.1-5.1a1.935,1.935,0,0,0,.25-.9c0-.7-.9-2.05-1.5-2.05a1.2,1.2,0,0,0-1.1.6c-.8,1.05-1.7,2.2-1.7,3.25,0,.5.05.7.05.9a4.022,4.022,0,0,1-.7,2.05C11-19.85,8.15-16.1,5.2-11.15c-.45-.95-1.95-1.7-3.7-1.7-4.55,0-10.8,5.65-10.8,10.2A2.558,2.558,0,0,0-7,.15c3.7,0,9.4-6.2,9.5-6.1S1.2-3.35,1.2-2.1A2.067,2.067,0,0,0,3.45.2Zm-11-2.1c0-2.8,6.3-9.35,10-9.35A2.2,2.2,0,0,1,4.6-10.2,21.894,21.894,0,0,1,1.8-6.7C.3-5.1-4.5-.8-6.75-.8-7.35-.8-7.55-1.4-7.55-1.9ZM25.1.2c3.7,0,7.5-2.25,10.2-4.4,1.2-.95,1.95-1.7,1.95-2.2,0-.25,0-.5-.3-.5a2.4,2.4,0,0,0-1.1.65c-.55.45-.25.8-.8,1.3C32.65-2.75,28.2-.7,25.7-.7c-.75,0-.95-.4-.95-.8,0-1.2,1.05-3.65,3.7-8.15,3.15-5.35,6.5-10.15,9.2-14.9,1.1-1.95,2.75-4.5,3.1-5.1a1.935,1.935,0,0,0,.25-.9c0-.7-.9-2.05-1.5-2.05a1.2,1.2,0,0,0-1.1.6c-.8,1.05-1.7,2.2-1.7,3.25,0,.5.05.7.05.9a4.022,4.022,0,0,1-.7,2.05c-3.4,5.95-6.25,9.7-9.2,14.65-.45-.95-1.95-1.7-3.7-1.7-4.55,0-10.8,5.65-10.8,10.2a2.558,2.558,0,0,0,2.3,2.8c3.7,0,9.4-6.2,9.5-6.1s-1.3,2.6-1.3,3.85A2.067,2.067,0,0,0,25.1.2Zm-11-2.1c0-2.8,6.3-9.35,10-9.35a2.2,2.2,0,0,1,2.15,1.05,21.893,21.893,0,0,1-2.8,3.5c-1.5,1.6-6.3,5.9-8.55,5.9C14.3-.8,14.1-1.4,14.1-1.9ZM43.55-18.45c-.2-.2-.3-.45-.65-.45-.6,0-.5.5-.75,1-.45.7-1.15,1.45-1.15,2.25A1.963,1.963,0,0,0,42.55-14c.9,0,1.9-1.3,1.9-2.2A4.373,4.373,0,0,0,43.55-18.45ZM36.8-8.65C36.8-7.5,33.65-4,33.65-1.6A1.914,1.914,0,0,0,35.75.25c3,0,7.35-2.25,10.1-4.45,1.25-1,1.95-1.7,1.95-2.25,0-.35-.2-.45-.35-.45-.2,0-.55.25-1.05.65-.55.45-.25.75-.8,1.25-2,1.85-6.9,4.35-9.2,4.35a.66.66,0,0,1-.65-.65c0-2.8,4.7-7.35,4.7-8.8a2.72,2.72,0,0,0-.2-1c-.45-1-.85-1.7-1.2-1.7-.25,0-.5.25-.75.6-.85,1.1-1.6,1.8-1.6,2.7C36.7-9.25,36.8-9.05,36.8-8.65ZM55.15-1.5c0,1.05.95,1.7,2.15,1.7,3.25,0,7.4-2.15,10.2-4.4,1.25-1,1.95-1.7,1.95-2.25,0-.2-.1-.5-.4-.5-.2,0-.5.2-1,.6-.55.45-.25.8-.8,1.3C65.15-3.1,60.55-.7,57.95-.7c-.55,0-1-.35-1-.7,0-2.35,5.1-6.35,5.1-9.6,0-.95-.45-1.75-1.9-1.75-3.45,0-10.4,5.8-13,8.05.3-.6,2.95-4.5,3.3-5.1a1.935,1.935,0,0,0,.25-.9c0-.5-.75-2.1-1.35-2.1a1.11,1.11,0,0,0-.9.6c-.85,1.1-1.6,1.8-1.6,2.7,0,.25.1.45.1.8a3.9,3.9,0,0,1-.8,1.9c-.5.75-2.9,4.8-2.9,5.45,0,.85.5,1.5,1.15,1.5A.708.708,0,0,0,45-.2c1.55-3.55,10.4-10.55,13.5-10.55.3,0,.55.25.55.7C59.05-8.5,55.15-4.75,55.15-1.5ZM78.05-5c-.95,1.85-1.9,3.9-3.65,7.3-9.8,2.25-13.9,3.75-19.65,8.1-3.9,2.95-6.6,7.05-6.6,10.45a5.618,5.618,0,0,0,5.8,5.5c5.4,0,12.25-6.15,16.6-13.05,2.3-3.7,4.3-7.35,6-10.6A34.58,34.58,0,0,0,87.7-2.65C88.65-3.4,90-4.75,90-5.7a.587.587,0,0,0-.55-.55c-.4,0-.85.45-1.35.85-.55.45-.35,1.5-.9,1.9A29.832,29.832,0,0,1,77.15,1.55c2.2-4.25,3.45-7,3.9-7,.85,0,1.55-1.85,1.55-2.7a3.489,3.489,0,0,0-.6-2,.755.755,0,0,0-.65-.4c-.4,0-.6.7-.65.8A16.255,16.255,0,0,1,78-6.4C75.95-4.3,70.95-.8,68.75-.8c-.35,0-.6-.4-.6-.8,0-3.3,7.95-10.05,11.9-10.05,1.6,0,2.5.5,2.95,1.65.25.6.5,1.2,1.05,1.2a.957.957,0,0,0,.8-.85c0-1.1-1.9-3.05-5.25-3.05C73.45-12.7,66.15-6.65,66.15-2A2.134,2.134,0,0,0,68.2.25c3.9,0,9.75-5.45,9.75-5.45Zm-9.8,17.6C64.45,18.4,57.7,23.9,53.7,23.9c-2.2,0-3.8-1.45-3.8-3.3,0-2.5,2.35-7.05,5.6-9.5,5.25-3.95,9.6-5.7,18.35-7.75C72.25,6.2,70.6,9,68.25,12.6Z" transform="translate(86.6 37.65)" fill="#4f8966"/>
</svg>
